<svg width="32" height="32" viewBox="0 0 32 32" fill="none" xmlns="http://www.w3.org/2000/svg">
<path d="M19.1014 7.78878L8.57984 7.71209V4L1 10.0243L8.57984 16.0497V12.3376L19.1014 12.2598" stroke="#2D3E56" stroke-width="1.6" stroke-miterlimit="22.9256" stroke-linecap="round" stroke-linejoin="round"/>
<path d="M12.8997 19.0017L23.4212 18.9239V15.2118L30.9999 21.2372L23.4212 27.2615V23.5494L12.8997 23.4715" stroke="#2D3E56" stroke-width="1.6" stroke-miterlimit="22.9256" stroke-linecap="round" stroke-linejoin="round"/>
</svg>
